-1,95,96,97,98,-1,-1,-1,-1,95,96,97,98,-1,-1,-1,-1,-1,-1,188,189,189,189,189,189,189,189,189,189,190
-1,120,121,122,123,-1,-1,-1,-1,120,121,122,123,95,96,97,98,-1,-1,213,-1,-1,-1,-1,-1,-1,-1,-1,-1,215
-1,145,146,147,148,95,96,97,98,145,146,147,148,120,121,122,123,-1,-1,213,-1,301,51,52,53,54,55,56,-1,215
-1,-1,-1,-1,-1,120,121,122,123,-1,-1,-1,-1,145,146,147,148,-1,-1,213,-1,303,76,77,78,79,80,81,-1,215
-1,-1,-1,-1,-1,145,146,147,148,-1,-1,-1,188,189,189,189,189,189,189,240,-1,-1,101,102,103,104,105,106,-1,215
95,96,97,98,-1,-1,-1,-1,-1,-1,-1,-1,213,-1,-1,-1,-1,-1,-1,213,-1,287,126,127,128,129,130,131,-1,215
120,121,122,123,-1,83,84,85,86,-1,-1,-1,213,-1,-1,-1,-1,-1,-1,213,-1,-1,303,304,153,154,155,304,-1,215
145,146,147,148,-1,108,109,110,111,-1,-1,-1,213,-1,-1,-1,-1,-1,-1,213,-1,-1,-1,-1,-1,-1,-1,-1,-1,215
-1,-1,-1,-1,-1,133,134,135,136,-1,-1,-1,213,-1,95,96,97,98,-1,238,239,239,239,240,-1,-1,238,239,239,240
-1,-1,-1,-1,-1,-1,159,160,161,-1,-1,-1,213,-1,120,121,122,123,-1,-1,-1,-1,-1,-1,-1,-1,-1,-1,-1,301
97,98,-1,-1,-1,-1,-1,-1,-1,-1,-1,-1,213,-1,145,146,147,148,-1,-1,-1,-1,-1,-1,-1,-1,-1,-1,-1,303
122,123,-1,-1,-1,-1,-1,-1,-1,-1,-1,-1,213,-1,-1,-1,-1,-1,-1,-1,-1,-1,-1,-1,-1,-1,-1,-1,-1,302
147,148,-1,-1,-1,176,177,178,178,179,184,-1,182,182,182,178,179,180,183,184,-1,-1,-1,-1,-1,-1,-1,-1,-1,303
-1,-1,-1,-1,-1,201,304,302,304,303,303,-1,303,302,302,303,304,301,301,209,-1,-1,-1,-1,-1,-1,-1,-1,-1,-1
-1,-1,-1,-1,-1,201,304,-1,-1,-1,-1,-1,-1,-1,-1,-1,304,-1,302,209,-1,-1,-1,-1,-1,-1,-1,-1,-1,-1
96,97,98,-1,-1,226,304,304,301,-1,302,-1,302,302,302,-1,301,-1,303,234,-1,-1,-1,-1,-1,-1,-1,95,96,97
121,122,123,-1,-1,201,301,-1,-1,-1,303,-1,-1,-1,304,-1,-1,-1,303,209,-1,-1,-1,-1,-1,-1,-1,120,121,122
146,147,148,-1,-1,226,302,-1,302,301,303,302,301,-1,301,301,303,-1,302,234,-1,-1,-1,-1,-1,-1,-1,145,146,147
-1,-1,-1,-1,-1,201,303,-1,-1,-1,-1,-1,304,-1,303,-1,301,-1,302,209,-1,-1,-1,-1,-1,-1,-1,-1,-1,-1
-1,-1,-1,-1,-1,226,302,-1,302,302,304,-1,303,-1,302,-1,301,-1,301,234,-1,-1,-1,-1,-1,-1,-1,-1,-1,-1
97,98,-1,-1,-1,201,302,-1,303,-1,-1,-1,302,-1,-1,-1,303,304,301,209,-1,-1,-1,-1,-1,-1,-1,95,96,97
122,123,-1,-1,-1,226,304,-1,303,-1,303,301,301,-1,301,303,301,-1,302,234,-1,-1,-1,-1,-1,-1,-1,120,121,122
147,148,-1,-1,-1,201,301,-1,304,-1,302,-1,-1,-1,301,-1,-1,-1,301,209,-1,-1,-1,-1,-1,-1,-1,145,146,147
-1,-1,-1,-1,-1,226,304,-1,303,-1,302,303,303,301,302,-1,303,302,304,259,-1,-1,-1,-1,-1,-1,-1,-1,-1,-1
-1,-1,-1,-1,-1,201,303,-1,301,-1,-1,-1,-1,-1,-1,-1,-1,-1,-1,-1,-1,-1,-1,-1,-1,-1,-1,-1,-1,-1
96,97,98,-1,-1,226,302,301,302,304,302,304,304,303,302,301,303,302,303,184,-1,-1,-1,-1,-1,-1,-1,-1,95,96
121,122,123,-1,-1,251,252,252,253,252,253,252,253,252,253,252,253,252,258,259,-1,-1,-1,-1,-1,-1,-1,-1,120,121
146,147,148,-1,-1,-1,-1,-1,-1,-1,-1,-1,-1,-1,-1,-1,-1,-1,-1,-1,-1,-1,-1,-1,-1,-1,-1,-1,145,146
301,-1,-1,-1,-1,-1,-1,-1,-1,-1,-1,-1,-1,-1,-1,-1,-1,-1,-1,-1,-1,-1,-1,-1,-1,-1,-1,-1,-1,303
301,303,301,-1,-1,-1,-1,-1,-1,-1,-1,-1,-1,-1,-1,304,303,-1,-1,-1,-1,-1,-1,-1,-1,-1,-1,-1,-1,303
